\contentsline {section}{\numberline {1}Models}{2}{section.1}
\contentsline {subsection}{\numberline {1.1}Entry.php}{2}{subsection.1.1}
\contentsline {subsection}{\numberline {1.2}RoomLoginEntry (located in Entry.php currently, this may change)}{2}{subsection.1.2}
\contentsline {subsection}{\numberline {1.3}ForumEntry (located in Entry.php currently, might change)}{2}{subsection.1.3}
\contentsline {subsection}{\numberline {1.4}WebsiteLogin (located in Entry.php, subject to change)}{3}{subsection.1.4}
\contentsline {subsection}{\numberline {1.5}ValidateEntry (Located in EntryValidation.php)}{3}{subsection.1.5}
\contentsline {subsection}{\numberline {1.6}InjectionValidator (Located in EntryValidation.php)}{3}{subsection.1.6}
\contentsline {subsection}{\numberline {1.7}UVMValidator (Located in EntryValidation.php)}{4}{subsection.1.7}
\contentsline {subsection}{\numberline {1.8}SQL\_Connector}{4}{subsection.1.8}
\contentsline {section}{\numberline {2}Adding Functionality and new Modules}{4}{section.2}
